module gitlab.com/rodrigoodhin/gocure

go 1.20

require (
	github.com/arsmn/fiber-swagger/v2 v2.24.0
	github.com/cucumber/godog v0.12.6
	github.com/gofiber/fiber/v2 v2.27.0
	github.com/spf13/pflag v1.0.5
	github.com/swaggo/swag v1.8.0
	github.com/tdewolff/minify/v2 v2.10.0
)

require (
	github.com/KyleBanks/depth v1.2.1 // indirect
	github.com/PuerkitoBio/purell v1.1.1 // indirect
	github.com/PuerkitoBio/urlesc v0.0.0-20170810143723-de5bf2ad4578 // indirect
	github.com/andybalholm/brotli v1.0.4 // indirect
	github.com/cucumber/gherkin-go/v19 v19.0.3 // indirect
	github.com/cucumber/messages-go/v16 v16.0.1 // indirect
	github.com/go-openapi/jsonpointer v0.19.5 // indirect
	github.com/go-openapi/jsonreference v0.19.6 // indirect
	github.com/go-openapi/spec v0.20.4 // indirect
	github.com/go-openapi/swag v0.19.15 // indirect
	github.com/gofrs/uuid v4.2.0+incompatible // indirect
	github.com/hashicorp/go-immutable-radix v1.3.1 // indirect
	github.com/hashicorp/go-memdb v1.3.2 // indirect
	github.com/hashicorp/golang-lru v0.5.4 // indirect
	github.com/josharian/intern v1.0.0 // indirect
	github.com/klauspost/compress v1.14.1 // indirect
	github.com/mailru/easyjson v0.7.6 // indirect
	github.com/swaggo/files v0.0.0-20210815190702-a29dd2bc99b2 // indirect
	github.com/tdewolff/parse/v2 v2.5.27 // indirect
	github.com/valyala/bytebufferpool v1.0.0 // indirect
	github.com/valyala/fasthttp v1.33.0 // indirect
	github.com/valyala/tcplisten v1.0.0 // indirect
	golang.org/x/net v0.0.0-20220111093109-d55c255bac03 // indirect
	golang.org/x/sys v0.6.0 // indirect
	golang.org/x/text v0.3.7 // indirect
	golang.org/x/tools v0.1.12-0.20220713141851-7464a5a40219 // indirect
	gopkg.in/yaml.v2 v2.4.0 // indirect
)
